<?xml version="1.0" encoding="UTF-8" standalone="no"?>
<!-- Created with Inkscape (http://www.inkscape.org/) -->

<svg
   width="210mm"
   height="297mm"
   viewBox="0 0 210 297"
   version="1.1"
   id="svg5"
   inkscape:version="1.1.2 (b8e25be8, 2022-02-05)"
   sodipodi:docname="logo-person.svg"
   inkscape:export-filename="/Users/dagurval/bchidentity-js/contrib/logo-512x512.png"
   inkscape:export-xdpi="125.04616"
   inkscape:export-ydpi="125.04616"
   xmlns:inkscape="http://www.inkscape.org/namespaces/inkscape"
   xmlns:sodipodi="http://sodipodi.sourceforge.net/DTD/sodipodi-0.dtd"
   xmlns:xlink="http://www.w3.org/1999/xlink"
   xmlns="http://www.w3.org/2000/svg"
   xmlns:svg="http://www.w3.org/2000/svg">
  <sodipodi:namedview
     id="namedview7"
     pagecolor="#ffffff"
     bordercolor="#666666"
     borderopacity="1.0"
     inkscape:pageshadow="2"
     inkscape:pageopacity="0.0"
     inkscape:pagecheckerboard="0"
     inkscape:document-units="mm"
     showgrid="false"
     inkscape:zoom="0.71032947"
     inkscape:cx="206.24232"
     inkscape:cy="333.64799"
     inkscape:window-width="1293"
     inkscape:window-height="792"
     inkscape:window-x="392"
     inkscape:window-y="100"
     inkscape:window-maximized="0"
     inkscape:current-layer="layer1" />
  <defs
     id="defs2">
    <linearGradient
       x1="0"
       y1="0"
       x2="1"
       y2="0"
       gradientUnits="userSpaceOnUse"
       gradientTransform="matrix(0,2000,2000,0,1000,0)"
       spreadMethod="pad"
       id="linearGradient28">
      <stop
         style="stop-opacity:1;stop-color:#06859a"
         offset="0"
         id="stop22" />
      <stop
         style="stop-opacity:1;stop-color:#06859a"
         offset="0.00630993"
         id="stop24" />
      <stop
         style="stop-opacity:1;stop-color:#2db194"
         offset="1"
         id="stop26" />
    </linearGradient>
    <linearGradient
       inkscape:collect="always"
       xlink:href="#linearGradient28"
       id="linearGradient13107"
       x1="18"
       y1="70"
       x2="122"
       y2="70"
       gradientUnits="userSpaceOnUse"
       gradientTransform="translate(-144.76253,-4.7625002)" />
    <linearGradient
       inkscape:collect="always"
       xlink:href="#linearGradient28"
       id="linearGradient19093"
       gradientUnits="userSpaceOnUse"
       gradientTransform="matrix(0,2000,2000,0,1000,0)"
       x1="0"
       y1="0"
       x2="1"
       y2="0"
       spreadMethod="pad" />
  </defs>
  <g
     inkscape:label="Layer 1"
     inkscape:groupmode="layer"
     id="layer1">
    <g
       id="g10"
       transform="matrix(0.05,0,0,-0.05,15.237497,124.76253)"
       style="stroke-width:1;stroke-miterlimit:4;stroke-dasharray:none">
      <g
         id="g12"
         style="stroke-width:1;stroke-miterlimit:4;stroke-dasharray:none">
        <g
           id="g18"
           style="stroke-width:1;stroke-miterlimit:4;stroke-dasharray:none">
          <g
             id="g20"
             style="stroke-width:1;stroke-miterlimit:4;stroke-dasharray:none">
            <path
               d="M 0,0 H 2000 V 2000 H 0 Z"
               style="fill:url(#linearGradient19093);stroke:none;stroke-width:1;stroke-miterlimit:4;stroke-dasharray:none"
               id="path30" />
          </g>
        </g>
      </g>
    </g>
    <rect
       style="fill:#2cb094;fill-opacity:0;stroke:url(#linearGradient13107);stroke-width:4;stroke-linecap:butt;stroke-linejoin:round;stroke-miterlimit:4;stroke-dasharray:none;stroke-opacity:1;paint-order:normal"
       id="rect8734"
       width="100"
       height="100"
       x="-124.76247"
       y="15.237497"
       transform="rotate(-90)" />
    <circle
       style="fill:#ffffff;fill-opacity:1;stroke:none;stroke-width:1.04176;stroke-linejoin:round;stroke-opacity:1"
       id="path945"
       cx="64.570045"
       cy="58.610371"
       r="19.47912" />
    <path
       style="fill:#ffffff;fill-opacity:1;stroke:none;stroke-width:1;stroke-linejoin:round"
       id="path1051"
       sodipodi:type="arc"
       sodipodi:cx="-64.943192"
       sodipodi:cy="-106.16593"
       sodipodi:rx="38.36541"
       sodipodi:ry="33.523174"
       sodipodi:start="0"
       sodipodi:end="3.1340636"
       sodipodi:arc-type="slice"
       d="m -26.577782,-106.16593 a 38.36541,33.523174 0 0 1 -38.220982,33.522935 38.36541,33.523174 0 0 1 -38.508746,-33.270545 l 38.364318,-0.25239 z"
       transform="rotate(-179.67824)" />
  </g>
</svg>
